INSERT INTO `userinfo` (`std_id`, `std_name`, `std_pwd`, `auth`, `validity`) VALUES
('123', '123', '123', 1, 0),
('1231454', 'admin', '32153', 1, 0),
('1234543', 'test', '123234', 0, 1),
('123', '321', '234', 0, 0),
('123', 'asd', 'qwew', 0, 0),
('1231454', 'dmin', 'qwerq', 0, 1),
('123432', 'werwe', 'qwe', 1, 1)